65.14291286468506,0.015350868500643348
65.34990906715393,4.832058395236954
65.35004997253418,7530.168761220826
65.35011696815491,16384.0
65.350182056427,17260.510288065845
65.35024094581604,19239.92660550459
1085.0894649028778,0.0009804435377967268
1085.0896699428558,4999.170441001192
1085.1724879741669,12.075673341298746
1085.2557570934296,12.010148039973656
1085.339164018631,11.990131870456501
1085.422338962555,12.023575278064442
1085.5057458877563,11.990268975355121
1085.5890879631042,11.999462151793352
1085.6723730564117,12.007844327320303
1085.755765914917,11.992017337702068
1085.8396298885345,11.924918828861102
1085.9224619865417,12.073483439743464
1086.0057899951935,12.00148791640199
1086.0890979766846,12.004373236252068
1086.1723918914795,12.00622881744069
1086.255846977234,11.983349094742737
1086.3390879631042,12.013897760375343
1086.4223959445953,12.004373236252068
1086.5060150623322,11.960147138498389
1086.5890998840332,12.03661805304452
1086.6724638938904,11.996716444378341
1086.7558438777924,11.994006291106663
1086.8391540050507,12.003926607920185
1086.9224770069122,12.002071738228436
1087.00581407547,12.000354777334307
1087.0890369415283,12.01665133895445
1087.172466993332,11.986808036352205
1087.2557220458984,12.012005407015373
1087.3391239643097,11.990851706156802
1087.422378063202,12.012143012612695
1087.5058109760284,11.98625995210416
1087.589117050171,12.004373236252068
1087.6723730564117,12.01186780457071
1087.7557859420776,11.989137953704816
1087.8391289710999,11.99918752449585
1087.9224100112915,12.008256867600956
1088.0057649612427,11.997608661451107
1088.089112997055,11.998466687644822
1088.1724960803986,11.993560433841465
1088.2556929588318,12.020267326959672
1088.339124917984,11.98622569850283
1088.4223709106445,12.013450423046738
1088.5058460235596,11.98020011253831
1088.5890979766846,12.012452636734134
1088.6723129749298,12.017787557878329
1088.7558460235596,11.97233489280199
1088.8391199111938,12.009288342328672
1088.922481060028,11.996888014278523
1089.0062069892883,11.944887764924331
1089.0891358852386,12.059077722799321
1089.1725130081177,11.994280681285245
1089.255707025528,12.020956333329512
1089.3390610218048,11.997745937395413
1089.4224600791931,11.991263079650066
1089.5057399272919,12.008428767750802
1089.5891189575195,11.994006291106663
1089.6723659038544,12.013175155094489
1089.7557430267334,11.994417881082565
1089.8390898704529,11.998466687644822
1089.9223968982697,12.004922978287375
1090.0057799816132,11.993834803620194
1090.0890488624573,12.009976090598022
1090.1724438667297,11.99239450231167
1090.2557830810547,11.999874116310806
1090.339098930359,12.003102150614563
1090.4223999977112,12.00564459112494
1090.5061118602753,11.946588889395251
1090.5891699790955,12.040626273877121
1090.6725618839264,11.991983051186674
1090.7556550502777,12.035409200079197
1090.8390970230103,11.985232429219673
1090.922415971756,12.002793008321792
1091.00585603714,11.985506418096403
1091.0889980793,12.028644108140972
1091.1723809242249,11.993286076615359
1091.2557790279388,11.991845907085656
1091.3390769958496,12.006538136745531
1091.422369003296,12.00667561710813
1091.5057699680328,11.990988827518382
1091.5891590118408,11.993011731941017
1091.6725010871887,11.99963380023803
1091.755812883377,12.003651776234264
1091.8390970230103,12.007672443902411
1091.9225749969482,11.979789497736459
1092.00581407547,12.014895786783999
1092.0891659259796,11.998192105910555
1092.1725060939789,12.00018310826276
1092.2558000087738,12.006263185465288
1092.3391089439392,12.004098384114755
1092.422466993332,11.9971625363264
1092.505697965622,12.015343231761292
1092.589112997055,11.98882953028575
1092.6725120544434,11.991263079650066
1092.755737066269,12.016341498352672
1092.8390510082245,12.003376957132676
1092.9223818778992,12.000904151370962
1093.005742073059,11.996853699905897
1093.0891509056091,11.990406083389317
1093.17245388031,12.00564459112494
1093.2558979988098,11.984513268014755
1093.3391048908234,12.01923396548661
1093.42244887352,11.999015888818322
1093.5057430267334,12.006503767146816
1093.5891568660736,11.98896660540179
1093.6724789142609,12.002346497566224
1093.7558379173279,11.997025273732023
1093.8392069339752,11.995584206100888
1093.9224770069122,12.009700981837861
1094.0059769153595,11.976642385788976
1094.0891370773315,12.02629881208048
1094.1724770069122,12.000217441684143
1094.2558660507202,11.993286076615359
1094.3391859531403,12.003067800684532
2075.546366930008,0.0010191527604302552
2075.6297929286957,11.987527472998579
2075.7131009101868,12.004510667040648
2075.7962698936462,12.024437022490432
2075.8797369003296,11.98191131057297
2075.9630970954895,11.997025273732023
2076.0469999313354,11.919395036502989
2076.129823923111,12.074665192708514
2076.2130830287933,12.01186780457071
2076.2964498996735,11.996167453673381
2076.380043029785,11.964002202083993
2076.4632539749146,12.018648472848248
2076.5463528633118,12.034545882325936
2076.6298089027405,11.983212148050798
2076.7131819725037,11.995446979620086
2076.796439886093,12.011730205278592
2076.8798060417175,11.995995904382196
2076.9631180763245,12.004098384114755
2077.046499967575,11.994177783497047
2077.1298339366913,12.001350554814785
2077.2131299972534,12.006366290719642
2077.296397924423,12.010285603019248
2077.3796548843384,12.011730205278592
2077.463250875473,11.963729195487542
2077.5464730262756,12.01689233713621
2077.6298608779907,11.993423253659387
2077.712965965271,12.033958896995745
2077.7963528633118,11.993148902709272
2077.8797760009766,11.987801566818433
2077.963058948517,12.00811935102451
2078.0467190742493,11.954011457234873
2078.129683971405,12.054468222080438
2078.213274002075,11.964002202083993
2078.296618938446,11.999462151793352
2078.3797550201416,12.029506579324744
2078.4630959033966,11.999771122529554
2078.546447992325,11.998157784077419
2078.6297059059143,12.012315024042936
2078.713136911392,11.986671010591174
2078.796397924423,12.011558210596554
2078.8800048828125,11.961272696680801
2078.9630739688873,12.039036487634618
2079.0465869903564,11.975172019985724
2079.129982948303,11.992291636883488
2079.2131130695343,12.030645230685387
2079.296448945999,12.000354777334307
2079.3799419403076,11.977771050963236
2079.463087081909,12.028057698374006
2079.5465018749237,11.989412121177473
2079.630068063736,11.968167097059537
2079.7134399414062,11.99575574361717
2079.7963869571686,12.056893835734572
2079.879765033722,11.994280681285245
2079.9630320072174,12.01056073856445
2080.0463528633118,12.003067800684532
2080.129767894745,11.989103683652381
2080.213105916977,12.00018310826276
2080.2966680526733,11.967996347657365
2080.379818916321,12.027195434929101
2080.463173866272,11.997883216481162
2080.546494960785,12.003067800684532
2080.6297929286957,12.006091347309846
2080.713101863861,12.004510667040648
2080.796516895294,11.989686301189733
2080.879755973816,12.01458603670571
2080.9630789756775,12.002483881952651
2081.046441078186,11.997025273732023
2081.129819869995,11.994314980940317
2081.213208913803,11.992977439739228
2081.296392917633,12.022403503843794
2081.3798220157623,11.987253391712418
2081.463080883026,12.011730205278592
2081.54651594162,11.986362714082812
2081.6298220157623,12.005094782999453
2081.7135388851166,11.946146550422812
2081.79643201828,12.065182935073079
2081.8800978660583,11.952853202015365
2081.963438987732,12.00018310826276
2082.0465450286865,12.033682688417917
2082.12978887558,12.013760114572145
2082.2131929397583,11.990954546883978
2082.2964720726013,12.009116417568574
2082.3798480033875,11.994863802101952
2082.463103055954,12.012727871575661
2082.5464210510254,12.002930402930403
2082.629774093628,11.998054819756167
